<svg width="16" height="16" viewBox="0 0 16 16" fill="none" xmlns="http://www.w3.org/2000/svg">
<path d="M11.5556 6.44444C11.5556 3.98889 8.96944 2 5.77778 2C2.58611 2 0 3.98889 0 6.44444C0 7.39722 0.391667 8.275 1.05556 9C0.683333 9.83889 0.0694444 10.5056 0.0611111 10.5139C0 10.5778 -0.0166667 10.6722 0.0194444 10.7556C0.0555556 10.8389 0.133333 10.8889 0.222222 10.8889C1.23889 10.8889 2.08056 10.5472 2.68611 10.1944C3.58056 10.6306 4.63889 10.8889 5.77778 10.8889C8.96944 10.8889 11.5556 8.9 11.5556 6.44444ZM14.9444 12.5556C15.6083 11.8333 16 10.9528 16 10C16 8.14167 14.5139 6.55 12.4083 5.88611C12.4333 6.06944 12.4444 6.25556 12.4444 6.44444C12.4444 9.38611 9.45278 11.7778 5.77778 11.7778C5.47778 11.7778 5.18611 11.7556 4.89722 11.725C5.77222 13.3222 7.82778 14.4444 10.2222 14.4444C11.3611 14.4444 12.4194 14.1889 13.3139 13.75C13.9194 14.1028 14.7611 14.4444 15.7778 14.4444C15.8667 14.4444 15.9472 14.3917 15.9806 14.3111C16.0167 14.2306 16 14.1361 15.9389 14.0694C15.9306 14.0611 15.3167 13.3972 14.9444 12.5556Z" fill="#A9A9A9"/>
</svg>
