<svg width="16" height="16" viewBox="0 0 16 16" fill="none" xmlns="http://www.w3.org/2000/svg">
<path d="M16 4.88438C16 5.49704 15.5033 5.99376 14.8906 5.99376C14.8837 5.99376 14.878 5.99025 14.8711 5.99014L13.47 13.6975C13.393 14.1172 13.0269 14.425 12.597 14.425H3.42798C2.9992 14.425 2.63144 14.1183 2.5549 13.6964L1.15403 5.99099C1.1471 5.99099 1.14127 5.99376 1.10938 5.99376C0.496724 5.99376 0 5.49704 0 4.88438C0 4.27173 0.521685 3.775 1.10938 3.775C1.69707 3.775 2.21876 4.27173 2.21876 4.88438C2.21876 5.13394 2.1211 5.35282 1.98199 5.53808L4.46782 7.52664C4.90908 7.8797 5.56333 7.73587 5.816 7.23044L7.4135 4.03543C7.10002 3.8399 6.87814 3.50709 6.87814 3.10938C6.87814 2.49672 7.39955 2 8.01248 2C8.62541 2 9.0969 2.49672 9.0969 3.10938C9.0969 3.50709 8.87605 3.8399 8.56162 4.03571L10.1591 7.23072C10.4118 7.73604 11.0663 7.8797 11.5073 7.52692L13.9931 5.53836C13.8783 5.35309 13.7812 5.10903 13.7812 4.88438C13.7812 4.27145 14.2777 3.775 14.8906 3.775C15.5036 3.775 16 4.27145 16 4.88438Z" fill="#A9A9A9"/>
</svg>
