<svg width="16" height="16" viewBox="0 0 16 16" fill="none" xmlns="http://www.w3.org/2000/svg">
<path d="M15.5 12H2V2.5C2 2.22375 1.77625 2 1.5 2H0.5C0.22375 2 0 2.22375 0 2.5V13C0 13.5522 0.447812 14 1 14H15.5C15.7762 14 16 13.7762 16 13.5V12.5C16 12.2238 15.7762 12 15.5 12ZM14.5 3H10.8106C10.1425 3 9.80781 3.80781 10.2803 4.28031L11.2928 5.29281L9 7.58594L6.70719 5.29313C6.31656 4.9025 5.68344 4.9025 5.29313 5.29313L3.14656 7.43969C2.95125 7.635 2.95125 7.95156 3.14656 8.14688L3.85344 8.85375C4.04875 9.04906 4.36531 9.04906 4.56063 8.85375L6 7.41406L8.29281 9.70687C8.68344 10.0975 9.31656 10.0975 9.70687 9.70687L12.7069 6.70687L13.7194 7.71938C14.1919 8.19187 14.9997 7.85719 14.9997 7.18906V3.5C15 3.22375 14.7762 3 14.5 3Z" fill="#A9A9A9"/>
</svg>
